<svg width="1920" height="582" viewBox="0 0 1920 582" fill="none" xmlns="http://www.w3.org/2000/svg">
<path d="M1082 144.949C745.099 182.976 309.548 -68.7186 -0.00036367 125.566L-0.000315228 581.754L1920 581.754L1920 21.14C1657.39 -57.421 1373.13 112.087 1082 144.949Z" fill="black"/>
</svg>
